{
  "pb": "~/assets/pb/270L02_mm000120.mp3",
  "sp": "~/assets/final/SPM0100001.mp3",
  "voice_code": "270",
  "val_a1": "~/assets/val/270A1L02089.mp3",
  "val_b1": "~/assets/val/270B1L02099.mp3",
  "val_b2": "~/assets/val/270B2L02099.mp3",
  "unit_size": "~/assets/val/270USL021kg.mp3",
  "music": "~/assets/music/002.mp3",
  "pad1": "0.12",
  "pad2": "0.09",
  "pad3": "0.5",
  "mastering": "gain -10 compand 0,0.2 -90,-90,-70,-70,-60,-30,-2,-8,-2,-7 -2 equalizer 40 .71q +4 equalizer 80 1.10q +0 equalizer 240 1.80q -3 equalizer 500 .71q +0 equalizer 1000 2.90q +0 equalizer 2500 .51q +1.5 equalizer 8500 .71q -1.5 equalizer 17000 .71q +4 sinc 90-14000 gain -n -9.1"
}
